<svg version="1.1" xmlns="http://www.w3.org/2000/svg" viewBox="137.1 87.1 1088.8 876.8">
<rect x="137.1" y="87.1" width="1088.8" height="876.8" fill="#202124" />
<polyline points="164.0 591.0,167.0 589.0,168.0 587.0,170.0 586.0,174.0 583.0,176.0 582.0,180.0 579.0,187.0 575.0,189.0 573.0,195.0 570.0,197.0 568.0,201.0 566.0,204.0 564.0,212.0 559.0,216.0 556.0,223.0 552.0,226.0 550.0,230.0 548.0,234.0 545.0,241.0 541.0,245.0 539.0,261.0 530.0,265.0 528.0,358.0 482.0,371.0 476.0,376.0 474.0,390.0 468.0,395.0 466.0,409.0 460.0,413.0 458.0,418.0 456.0,438.0 449.0,447.0 445.0,452.0 443.0,456.0 442.0,461.0 440.0,470.0 437.0,475.0 435.0,479.0 433.0,488.0 430.0,492.0 429.0,497.0 427.0,501.0 426.0,510.0 423.0,514.0 421.0,523.0 418.0,528.0 417.0,533.0 415.0,538.0 414.0,547.0 411.0,552.0 410.0,556.0 408.0,566.0 406.0,575.0 403.0,580.0 402.0,594.0 398.0,599.0 397.0,608.0 395.0,613.0 393.0,617.0 392.0,627.0 390.0,631.0 389.0,636.0 388.0,640.0 387.0,649.0 385.0,653.0 384.0,658.0 383.0,667.0 381.0,671.0 380.0,687.0 377.0,691.0 376.0,707.0 373.0,711.0 372.0,723.0 370.0,727.0 369.0,739.0 367.0,743.0 366.0,751.0 365.0,755.0 364.0,763.0 363.0,772.0 361.0,776.0 361.0,780.0 360.0,789.0 359.0,793.0 358.0,797.0 358.0,801.0 357.0,810.0 356.0,814.0 356.0,823.0 355.0,827.0 354.0,831.0 354.0,844.0 353.0,848.0 353.0,852.0 352.0,860.0 352.0,872.0 351.0,880.0 351.0,895.0 350.0,899.0 350.0,930.0 349.0,934.0 349.0,975.0 350.0,979.0 350.0,992.0 351.0,995.0 351.0,1005.0 352.0,1008.0 352.0,1018.0 353.0,1021.0 353.0,1034.0 354.0,1037.0 354.0,1047.0 355.0,1050.0 355.0,1053.0 356.0,1057.0 356.0,1063.0 357.0,1066.0 357.0,1073.0 358.0,1076.0 358.0,1083.0 359.0,1090.0 359.0,1093.0 360.0,1100.0 360.0,1103.0 361.0,1106.0 361.0,1109.0 362.0,1114.0 362.0,1116.0 363.0,1123.0 364.0,1126.0 364.0,1129.0 365.0,1134.0 366.0,1139.0 366.0,1141.0 367.0,1147.0 368.0,1155.0 369.0,1160.0 370.0,1168.0 371.0,1172.0 372.0,1175.0 372.0,1180.0 373.0,1187.0 374.0,1191.0 375.0,1194.0 376.0,1199.0 378.0,1200.0 379.0" style="fill:none;stroke:#ffffff;stroke-width:2"/>
<polyline points="163.0 698.0,165.0 697.0,168.0 694.0,175.0 688.0,180.0 684.0,182.0 683.0,186.0 680.0,188.0 678.0,190.0 677.0,192.0 675.0,197.0 672.0,200.0 670.0,210.0 664.0,212.0 663.0,215.0 661.0,222.0 657.0,226.0 654.0,230.0 652.0,243.0 645.0,247.0 643.0,253.0 639.0,257.0 637.0,260.0 636.0,264.0 634.0,270.0 630.0,274.0 628.0,281.0 624.0,284.0 622.0,288.0 620.0,298.0 614.0,302.0 612.0,305.0 611.0,312.0 607.0,315.0 605.0,319.0 603.0,322.0 601.0,329.0 597.0,333.0 596.0,336.0 594.0,343.0 590.0,347.0 589.0,351.0 587.0,357.0 583.0,361.0 582.0,364.0 580.0,368.0 578.0,375.0 575.0,378.0 573.0,382.0 571.0,389.0 568.0,393.0 566.0,400.0 563.0,407.0 559.0,411.0 558.0,418.0 554.0,422.0 553.0,426.0 551.0,437.0 546.0,441.0 545.0,445.0 543.0,452.0 540.0,456.0 538.0,464.0 535.0,476.0 530.0,480.0 529.0,488.0 526.0,491.0 524.0,495.0 523.0,502.0 520.0,506.0 519.0,509.0 517.0,513.0 516.0,521.0 513.0,524.0 512.0,532.0 509.0,535.0 508.0,539.0 506.0,542.0 505.0,546.0 504.0,553.0 501.0,556.0 500.0,563.0 498.0,567.0 497.0,574.0 495.0,582.0 492.0,585.0 491.0,589.0 490.0,596.0 488.0,599.0 487.0,603.0 485.0,610.0 483.0,613.0 482.0,617.0 481.0,628.0 478.0,632.0 477.0,635.0 476.0,642.0 474.0,646.0 473.0,650.0 473.0,653.0 472.0,660.0 470.0,664.0 469.0,671.0 467.0,675.0 466.0,682.0 465.0,689.0 463.0,692.0 462.0,695.0 462.0,702.0 460.0,706.0 459.0,709.0 458.0,713.0 458.0,720.0 456.0,724.0 455.0,735.0 453.0,738.0 452.0,742.0 452.0,749.0 450.0,752.0 449.0,756.0 449.0,759.0 448.0,766.0 447.0,769.0 446.0,776.0 445.0,779.0 445.0,782.0 444.0,786.0 444.0,789.0 443.0,796.0 442.0,800.0 442.0,807.0 440.0,810.0 440.0,813.0 439.0,817.0 439.0,824.0 438.0,827.0 438.0,830.0 437.0,837.0 436.0,840.0 436.0,850.0 435.0,854.0 435.0,857.0 434.0,861.0 434.0,867.0 433.0,871.0 433.0,874.0 432.0,881.0 432.0,887.0 431.0,891.0 431.0,907.0 430.0,910.0 430.0,925.0 429.0,928.0 429.0,948.0 428.0,952.0 428.0,971.0 429.0,974.0 429.0,1004.0 430.0,1011.0 430.0,1018.0 431.0,1021.0 431.0,1028.0 432.0,1035.0 432.0,1038.0 433.0,1041.0 433.0,1045.0 434.0,1048.0 434.0,1058.0 435.0,1061.0 436.0,1065.0 436.0,1069.0 437.0,1074.0 438.0,1081.0 439.0,1085.0 439.0,1089.0 440.0,1092.0 440.0,1099.0 442.0,1102.0 442.0,1108.0 443.0,1112.0 444.0,1118.0 445.0,1123.0 446.0,1130.0 447.0,1133.0 448.0,1140.0 450.0,1145.0 451.0,1149.0 452.0,1156.0 454.0,1158.0 455.0,1162.0 456.0,1165.0 457.0,1170.0 458.0,1172.0 459.0,1177.0 461.0,1180.0 462.0,1184.0 463.0,1187.0 465.0,1189.0 466.0,1192.0 467.0,1194.0 469.0" style="fill:none;stroke:#ffffff;stroke-width:2"/>
<polyline points="171.0 803.0,173.0 801.0,181.0 794.0,182.0 792.0,185.0 789.0,188.0 787.0,189.0 785.0,191.0 784.0,194.0 781.0,195.0 779.0,197.0 778.0,201.0 774.0,203.0 773.0,208.0 769.0,211.0 766.0,215.0 764.0,217.0 762.0,219.0 761.0,222.0 759.0,226.0 756.0,229.0 755.0,231.0 753.0,237.0 750.0,241.0 747.0,249.0 742.0,261.0 735.0,267.0 731.0,271.0 729.0,275.0 726.0,279.0 724.0,286.0 720.0,290.0 718.0,294.0 715.0,303.0 711.0,307.0 709.0,311.0 706.0,319.0 702.0,323.0 699.0,327.0 697.0,339.0 690.0,344.0 688.0,348.0 685.0,357.0 680.0,361.0 678.0,369.0 673.0,378.0 668.0,383.0 666.0,392.0 662.0,396.0 660.0,430.0 644.0,434.0 642.0,443.0 638.0,460.0 629.0,469.0 625.0,473.0 623.0,486.0 618.0,490.0 616.0,506.0 609.0,510.0 607.0,523.0 601.0,527.0 599.0,532.0 597.0,536.0 595.0,544.0 592.0,548.0 590.0,556.0 587.0,560.0 586.0,564.0 584.0,568.0 583.0,575.0 580.0,579.0 579.0,591.0 575.0,595.0 574.0,599.0 572.0,607.0 569.0,611.0 568.0,619.0 565.0,627.0 563.0,635.0 560.0,642.0 558.0,646.0 557.0,662.0 552.0,666.0 551.0,675.0 549.0,679.0 548.0,687.0 545.0,695.0 543.0,704.0 541.0,712.0 539.0,732.0 535.0,736.0 534.0,747.0 532.0,751.0 532.0,755.0 531.0,763.0 530.0,766.0 529.0,770.0 529.0,774.0 528.0,782.0 528.0,786.0 527.0,790.0 527.0,798.0 526.0,802.0 525.0,807.0 525.0,820.0 524.0,824.0 523.0,833.0 523.0,837.0 522.0,841.0 522.0,854.0 521.0,859.0 521.0,863.0 520.0,872.0 520.0,880.0 519.0,889.0 519.0,974.0 521.0,977.0 521.0,981.0 522.0,987.0 522.0,994.0 523.0,998.0 523.0,1005.0 524.0,1008.0 524.0,1018.0 525.0,1021.0 525.0,1024.0 526.0,1031.0 526.0,1034.0 527.0,1037.0 527.0,1040.0 528.0,1046.0 528.0,1049.0 529.0,1056.0 530.0,1059.0 530.0,1065.0 531.0,1068.0 531.0,1073.0 532.0,1076.0 533.0,1082.0 534.0,1086.0 534.0,1093.0 536.0,1097.0 536.0,1101.0 537.0,1108.0 538.0,1110.0 539.0,1116.0 540.0,1120.0 541.0,1123.0 541.0,1127.0 543.0,1132.0 544.0,1136.0 545.0,1138.0 546.0,1142.0 547.0,1149.0 549.0,1152.0 550.0,1154.0 551.0,1158.0 552.0,1161.0 553.0,1163.0 554.0,1168.0 556.0,1170.0 557.0,1177.0 560.0,1179.0 561.0,1184.0 564.0,1186.0 565.0,1189.0 566.0,1191.0 567.0,1194.0 568.0,1192.0 567.0,1190.0 567.0" style="fill:none;stroke:#ffffff;stroke-width:2"/>
<polyline points="171.0 915.0,174.0 912.0,175.0 910.0,179.0 906.0,181.0 903.0,185.0 900.0,186.0 898.0,188.0 897.0,189.0 895.0,193.0 893.0,195.0 891.0,200.0 887.0,202.0 885.0,204.0 884.0,208.0 881.0,210.0 879.0,213.0 877.0,215.0 875.0,221.0 871.0,228.0 866.0,236.0 860.0,243.0 855.0,246.0 853.0,256.0 847.0,262.0 843.0,302.0 815.0,310.0 810.0,313.0 808.0,317.0 805.0,324.0 801.0,328.0 799.0,332.0 796.0,340.0 791.0,344.0 788.0,348.0 786.0,352.0 783.0,360.0 778.0,364.0 775.0,376.0 767.0,380.0 764.0,385.0 761.0,389.0 759.0,397.0 754.0,401.0 752.0,421.0 741.0,429.0 737.0,484.0 711.0,488.0 709.0,500.0 704.0,503.0 702.0,507.0 700.0,515.0 697.0,519.0 695.0,527.0 692.0,531.0 690.0,536.0 689.0,540.0 687.0,547.0 684.0,551.0 682.0,555.0 681.0,564.0 678.0,568.0 676.0,580.0 671.0,585.0 670.0,589.0 668.0,593.0 667.0,600.0 664.0,605.0 662.0,609.0 661.0,625.0 656.0,628.0 655.0,636.0 653.0,640.0 651.0,649.0 648.0,653.0 647.0,670.0 642.0,674.0 641.0,727.0 629.0,731.0 628.0,747.0 625.0,751.0 624.0,763.0 622.0,768.0 621.0,776.0 620.0,780.0 619.0,788.0 618.0,801.0 616.0,809.0 615.0,813.0 615.0,821.0 614.0,829.0 614.0,833.0 613.0,837.0 613.0,845.0 612.0,849.0 612.0,853.0 611.0,861.0 611.0,869.0 610.0,873.0 610.0,887.0 609.0,895.0 609.0,982.0 611.0,985.0 611.0,994.0 612.0,997.0 612.0,1009.0 613.0,1013.0 613.0,1021.0 614.0,1024.0 614.0,1028.0 615.0,1031.0 615.0,1035.0 616.0,1038.0 616.0,1040.0 617.0,1047.0 618.0,1052.0 619.0,1056.0 619.0,1058.0 620.0,1061.0 620.0,1065.0 621.0,1071.0 622.0,1075.0 623.0,1077.0 624.0,1080.0 624.0,1084.0 625.0,1087.0 626.0,1092.0 627.0,1096.0 628.0,1099.0 628.0,1103.0 629.0,1109.0 630.0,1113.0 631.0,1115.0 632.0,1121.0 634.0,1125.0 635.0,1131.0 637.0,1133.0 638.0,1138.0 640.0,1141.0 641.0,1145.0 642.0,1147.0 643.0,1150.0 645.0,1153.0 646.0,1158.0 648.0,1161.0 650.0,1163.0 651.0,1168.0 654.0,1170.0 655.0,1173.0 656.0,1177.0 658.0,1180.0 660.0,1182.0 661.0,1187.0 664.0,1188.0 665.0" style="fill:none;stroke:#ffffff;stroke-width:2"/>
<polyline points="229.0 526.0,232.0 527.0,237.0 529.0,240.0 530.0,244.0 532.0,247.0 533.0,247.0 538.0,245.0 542.0,242.0 550.0,241.0 552.0,240.0 555.0,238.0 563.0,237.0 565.0,237.0 568.0,236.0 571.0,235.0 573.0" style="fill:none;stroke:#ffffff;stroke-width:2"/>
<polyline points="260.0 613.0,258.0 611.0,259.0 614.0,261.0 617.0,264.0 619.0,266.0 620.0,269.0 622.0,271.0 623.0,273.0 625.0,272.0 631.0,271.0 633.0,270.0 637.0,269.0 640.0,268.0 644.0,266.0 649.0,264.0 652.0,263.0 655.0" style="fill:none;stroke:#ffffff;stroke-width:2"/>
<polyline points="275.0 697.0,277.0 699.0,282.0 703.0,284.0 704.0,287.0 706.0,289.0 707.0,291.0 709.0,294.0 711.0,296.0 712.0,296.0 715.0,295.0 719.0,294.0 724.0,293.0 727.0,292.0 731.0,290.0 737.0,289.0 742.0,288.0 743.0" style="fill:none;stroke:#ffffff;stroke-width:2"/>
<polyline points="302.0 793.0,304.0 794.0,309.0 796.0,311.0 797.0,313.0 799.0,316.0 800.0,318.0 801.0,321.0 803.0,320.0 806.0,318.0 810.0,316.0 816.0,315.0 820.0,314.0 823.0,313.0 827.0,312.0 829.0,311.0 832.0,310.0 837.0,309.0 839.0,308.0 843.0" style="fill:none;stroke:#ffffff;stroke-width:2"/>
<polyline points="303.0 882.0,305.0 880.0,304.0 878.0,302.0 876.0,300.0 875.0,297.0 874.0,293.0 872.0,291.0 874.0,290.0 878.0,290.0 883.0,291.0 888.0,292.0 892.0,292.0 896.0,293.0 901.0,294.0 903.0,295.0 907.0,297.0 913.0,298.0 915.0,299.0 918.0,300.0 920.0,303.0 928.0,304.0 931.0,304.0 934.0,303.0 938.0,302.0 941.0,300.0 943.0,297.0 943.0,293.0 942.0,291.0 941.0,290.0 939.0,288.0 937.0,287.0 935.0" style="fill:none;stroke:#ffffff;stroke-width:2"/>
<polyline points="274.0 906.0,278.0 907.0,282.0 905.0,287.0 902.0,290.0 901.0,292.0 899.0,294.0 898.0,297.0 897.0,299.0 895.0,301.0 898.0,302.0 901.0,303.0 903.0,304.0 907.0,306.0 910.0,309.0 908.0,312.0 907.0" style="fill:none;stroke:#ffffff;stroke-width:2"/>
<polyline points="311.0 890.0,311.0 895.0,312.0 899.0,313.0 902.0,315.0 904.0,317.0 905.0,320.0 904.0,321.0 902.0,320.0 899.0,317.0 892.0,316.0 889.0,314.0 885.0,311.0 885.0,311.0 887.0" style="fill:none;stroke:#ffffff;stroke-width:2"/>
<polyline points="321.0 884.0,323.0 887.0,325.0 889.0,326.0 891.0,328.0 894.0,329.0 896.0,329.0 893.0,328.0 890.0,328.0 886.0,327.0 881.0,327.0 878.0,328.0 875.0,330.0 877.0,334.0 882.0,336.0 884.0,337.0 886.0,339.0 888.0,339.0 884.0,338.0 876.0,338.0 872.0,338.0 868.0" style="fill:none;stroke:#ffffff;stroke-width:2"/>
<polyline points="358.0 854.0,359.0 857.0,361.0 859.0,362.0 861.0,364.0 863.0,368.0 865.0,368.0 861.0,369.0 859.0,369.0 856.0,370.0 848.0,370.0 844.0" style="fill:none;stroke:#ffffff;stroke-width:2"/>
<polyline points="344.0 843.0,346.0 842.0,349.0 841.0,352.0 839.0,354.0 838.0,357.0 835.0,359.0 834.0,362.0 832.0,364.0 831.0,367.0 829.0,369.0 828.0,368.0 825.0,365.0 823.0,363.0 822.0,360.0 821.0,361.0 822.0" style="fill:none;stroke:#ffffff;stroke-width:2"/>
<polyline points="395.0 843.0,398.0 842.0,400.0 840.0,403.0 839.0,406.0 837.0,408.0 835.0,410.0 834.0,413.0 832.0,416.0 831.0,419.0 829.0,421.0 829.0" style="fill:none;stroke:#ffffff;stroke-width:2"/>
<polyline points="412.0 823.0,415.0 824.0,420.0 825.0,424.0 825.0,424.0 829.0,422.0 833.0,420.0 836.0,419.0 839.0,419.0 841.0" style="fill:none;stroke:#ffffff;stroke-width:2"/>
<polyline points="515.0 416.0,511.0 417.0,510.0 419.0,511.0 422.0,514.0 423.0,516.0 420.0,516.0 416.0,513.0 415.0,511.0 417.0,509.0 420.0,510.0 423.0,511.0 425.0,514.0 424.0,516.0 423.0,516.0 419.0,514.0 417.0,510.0 416.0,508.0 418.0,507.0 420.0,508.0 423.0,510.0 425.0,514.0 425.0,516.0 423.0,516.0 419.0,515.0 417.0,512.0 416.0,510.0 419.0,509.0 422.0,510.0 425.0,513.0 426.0,518.0 424.0,518.0 420.0,516.0 418.0,513.0 416.0,509.0 420.0,508.0 423.0,509.0 425.0,512.0 427.0,514.0 425.0,515.0 422.0,515.0 418.0,513.0 416.0,509.0 417.0,508.0 420.0,509.0 422.0,512.0 424.0,514.0 423.0,516.0 421.0,515.0 418.0,512.0 418.0,510.0 420.0,510.0 424.0,513.0 425.0,517.0 423.0,517.0 419.0,514.0 418.0,512.0 421.0,513.0 424.0,515.0 422.0,514.0 419.0,512.0 421.0,511.0 423.0,513.0 425.0,515.0 421.0,514.0 418.0,511.0 420.0,511.0 424.0,514.0 425.0,516.0 423.0,517.0 420.0,516.0 417.0,513.0 418.0,512.0 420.0,512.0 424.0,516.0 424.0,515.0 421.0,512.0 422.0,511.0 424.0,512.0 427.0,514.0 425.0,514.0 421.0,511.0 421.0,511.0 425.0,513.0 427.0,516.0 426.0,517.0 423.0,516.0 420.0,515.0 418.0,513.0 417.0,510.0 419.0,509.0 422.0,510.0 425.0,513.0 425.0,515.0 424.0,516.0 422.0,517.0 419.0,516.0 415.0,514.0 414.0,511.0 412.0,509.0 414.0,507.0 415.0,506.0 417.0,505.0 422.0,506.0 425.0,508.0 427.0,512.0 426.0,515.0 423.0,515.0 419.0,514.0 416.0,512.0 415.0,509.0 415.0,506.0 418.0,505.0 421.0,506.0 423.0,507.0 426.0,510.0 427.0,514.0 426.0,516.0 424.0,517.0 422.0,517.0 419.0,515.0 416.0,511.0 417.0,510.0 419.0,509.0 423.0,510.0 427.0,515.0 427.0,518.0 425.0,519.0 423.0,517.0 420.0,514.0 420.0,513.0 421.0" style="fill:none;stroke:#ffffff;stroke-width:2"/>
<polyline points="771.0 358.0,768.0 359.0,767.0 362.0,766.0 364.0,767.0 366.0,770.0 367.0,772.0 365.0,772.0 361.0,771.0 358.0,767.0 358.0,765.0 361.0,765.0 365.0,767.0 367.0,771.0 367.0,773.0 365.0,773.0 361.0,772.0 358.0,770.0 356.0,767.0 357.0,766.0 359.0,765.0 363.0,766.0 366.0,768.0 367.0,771.0 366.0,773.0 365.0,774.0 362.0,773.0 359.0,772.0 357.0,770.0 356.0,767.0 358.0,765.0 362.0,764.0 366.0,766.0 368.0,770.0 369.0,772.0 368.0,774.0 365.0,774.0 361.0,773.0 358.0,771.0 356.0,767.0 358.0,765.0 360.0,764.0 363.0,765.0 366.0,767.0 368.0,772.0 368.0,774.0 366.0,773.0 361.0,771.0 360.0,768.0 362.0,766.0 365.0,768.0 367.0,772.0 366.0,770.0 365.0,774.0 364.0,771.0 365.0,768.0 366.0" style="fill:none;stroke:#ffffff;stroke-width:2"/>
<polyline points="770.0 330.0,772.0 332.0,772.0 336.0,773.0 340.0,774.0 338.0,776.0 337.0,778.0 335.0,782.0 331.0" style="fill:none;stroke:#ffffff;stroke-width:2"/>
<polyline points="776.0 323.0,778.0 317.0,779.0 315.0,780.0 312.0,781.0 308.0,784.0 300.0,786.0 296.0,787.0 292.0,789.0 286.0,791.0 282.0,792.0 278.0,795.0 270.0,797.0 265.0,800.0 255.0,804.0 245.0,807.0 236.0,810.0 231.0,811.0 228.0,812.0 225.0" style="fill:none;stroke:#ffffff;stroke-width:2"/>
<polyline points="507.0 381.0,507.0 378.0,508.0 375.0,509.0 370.0,509.0 367.0,511.0 357.0,517.0 332.0,518.0 327.0,522.0 317.0,523.0 313.0,525.0 309.0,528.0 302.0,529.0 300.0,531.0 294.0,532.0 291.0" style="fill:none;stroke:#ffffff;stroke-width:2"/>
<polyline points="496.0 206.0,497.0 209.0,496.0 213.0,496.0 216.0,495.0 218.0,494.0 221.0,493.0 226.0,492.0 229.0,491.0 231.0,490.0 236.0,489.0 239.0" style="fill:none;stroke:#ffffff;stroke-width:2"/>
<polyline points="486.0 174.0,488.0 172.0,493.0 170.0,498.0 169.0,506.0 170.0,508.0 171.0,511.0 172.0,514.0 176.0,515.0 179.0,515.0 183.0,513.0 192.0,507.0 198.0,505.0 201.0,502.0 203.0,500.0 205.0,495.0 208.0,492.0 209.0,490.0 209.0" style="fill:none;stroke:#ffffff;stroke-width:2"/>
<polyline points="508.0 223.0,510.0 221.0,511.0 219.0,515.0 210.0,516.0 206.0,516.0 210.0,517.0 214.0,517.0 218.0,518.0 220.0,518.0 222.0" style="fill:none;stroke:#ffffff;stroke-width:2"/>
<polyline points="511.0 218.0,513.0 217.0,517.0 216.0" style="fill:none;stroke:#ffffff;stroke-width:2"/>
<polyline points="527.0 209.0,526.0 212.0,525.0 217.0,524.0 221.0" style="fill:none;stroke:#ffffff;stroke-width:2"/>
<polyline points="526.0 201.0,529.0 199.0,532.0 198.0,534.0 197.0,536.0 199.0,535.0 201.0,532.0 205.0,529.0 208.0,526.0 213.0,528.0 215.0,529.0 217.0,529.0 221.0,530.0 225.0,530.0 228.0,531.0 241.0,531.0 244.0,532.0 248.0,532.0 253.0,533.0 256.0,534.0 258.0" style="fill:none;stroke:#ffffff;stroke-width:2"/>
<polyline points="544.0 213.0,543.0 215.0,543.0 219.0,542.0 222.0,541.0 226.0,541.0 230.0" style="fill:none;stroke:#ffffff;stroke-width:2"/>
<polyline points="537.0 212.0,540.0 213.0,545.0 212.0,547.0 211.0,549.0 216.0,549.0 219.0,548.0 223.0,548.0 226.0,549.0 228.0" style="fill:none;stroke:#ffffff;stroke-width:2"/>
<polyline points="561.0 208.0,560.0 210.0,558.0 216.0,556.0 220.0,557.0 224.0,560.0 224.0" style="fill:none;stroke:#ffffff;stroke-width:2"/>
<polyline points="570.0 207.0,569.0 209.0,568.0 213.0,568.0 216.0,567.0 219.0,566.0 224.0,568.0 225.0,571.0 223.0,573.0 223.0" style="fill:none;stroke:#ffffff;stroke-width:2"/>
<polyline points="583.0 205.0,582.0 207.0,582.0 210.0,581.0 213.0,580.0 217.0,579.0 219.0,580.0 222.0,583.0 222.0,585.0 220.0" style="fill:none;stroke:#ffffff;stroke-width:2"/>
<polyline points="578.0 201.0,581.0 200.0,586.0 199.0,589.0 200.0" style="fill:none;stroke:#ffffff;stroke-width:2"/>
<polyline points="579.0 211.0,583.0 210.0,585.0 210.0" style="fill:none;stroke:#ffffff;stroke-width:2"/>
<polyline points="488.0 262.0,486.0 265.0,485.0 269.0,486.0 271.0,488.0 270.0,490.0 268.0,491.0 266.0,493.0 264.0,497.0 264.0,500.0 263.0,502.0 261.0,503.0 258.0,502.0 255.0,500.0 251.0,496.0 249.0,490.0 250.0,488.0 252.0,486.0 253.0,484.0 255.0,476.0 264.0,474.0 269.0,470.0 280.0,469.0 285.0,469.0 289.0,470.0 295.0,471.0 298.0,473.0 300.0,477.0 303.0,480.0 303.0,483.0 304.0,488.0 303.0,490.0 302.0" style="fill:none;stroke:#ffffff;stroke-width:2"/>
<polyline points="517.0 251.0,516.0 257.0,514.0 261.0,512.0 270.0,511.0 273.0,511.0 276.0,510.0 281.0,510.0 287.0,511.0 288.0" style="fill:none;stroke:#ffffff;stroke-width:2"/>
<polyline points="505.0 273.0,509.0 272.0,514.0 270.0,517.0 269.0,522.0 268.0,524.0 267.0,523.0 271.0,523.0 275.0,523.0 277.0" style="fill:none;stroke:#ffffff;stroke-width:2"/>
<polyline points="529.0 270.0,529.0 274.0,528.0 279.0,529.0 277.0,532.0 272.0,533.0 270.0,535.0 268.0,537.0 272.0,537.0 276.0,539.0 275.0,542.0 271.0,543.0 269.0,547.0 270.0,549.0 271.0,552.0 270.0,554.0 268.0,553.0 265.0,550.0 267.0,549.0 269.0,549.0 272.0,548.0 275.0,549.0 278.0,550.0 280.0,554.0 279.0,557.0 277.0" style="fill:none;stroke:#ffffff;stroke-width:2"/>
<polyline points="578.0 247.0,576.0 250.0,575.0 254.0,574.0 257.0,573.0 262.0,571.0 274.0,572.0 278.0,575.0 280.0" style="fill:none;stroke:#ffffff;stroke-width:2"/>
<polyline points="568.0 261.0,572.0 260.0,575.0 260.0,578.0 259.0,580.0 259.0" style="fill:none;stroke:#ffffff;stroke-width:2"/>
<polyline points="618.0 210.0,621.0 209.0,624.0 208.0" style="fill:none;stroke:#ffffff;stroke-width:2"/>
<polyline points="645.0 203.0,647.0 203.0" style="fill:none;stroke:#ffffff;stroke-width:2"/>
<polyline points="693.0 193.0,696.0 192.0" style="fill:none;stroke:#ffffff;stroke-width:2"/>
<polyline points="719.0 189.0,721.0 189.0" style="fill:none;stroke:#ffffff;stroke-width:2"/>
<polyline points="749.0 185.0,751.0 185.0" style="fill:none;stroke:#ffffff;stroke-width:2"/>
<polyline points="775.0 180.0,777.0 180.0" style="fill:none;stroke:#ffffff;stroke-width:2"/>
<polyline points="656.0 198.0,659.0 197.0,661.0 197.0" style="fill:none;stroke:#ffffff;stroke-width:2"/>
<polyline points="687.0 179.0,689.0 180.0,694.0 182.0,696.0 183.0,700.0 184.0,703.0 185.0,705.0 186.0" style="fill:none;stroke:#ffffff;stroke-width:2"/>
<polyline points="705.0 189.0,703.0 190.0,699.0 195.0,697.0 197.0,696.0 199.0,692.0 204.0,691.0 206.0,689.0 208.0" style="fill:none;stroke:#ffffff;stroke-width:2"/>
<polyline points="802.0 124.0,803.0 122.0,799.0 123.0,794.0 128.0,791.0 132.0,781.0 147.0,779.0 152.0,777.0 156.0,777.0 160.0,778.0 172.0,780.0 175.0,781.0 177.0,785.0 181.0" style="fill:none;stroke:#ffffff;stroke-width:2"/>
<polyline points="801.0 139.0,799.0 141.0,796.0 146.0,797.0 148.0,800.0 150.0,804.0 153.0,803.0 156.0,802.0 158.0,799.0 160.0,796.0 161.0,795.0 162.0" style="fill:none;stroke:#ffffff;stroke-width:2"/>
<polyline points="805.0 161.0,807.0 158.0,809.0 156.0,810.0 154.0,812.0 148.0,813.0 143.0,814.0 140.0,817.0 142.0,817.0 147.0,818.0 155.0,818.0 157.0" style="fill:none;stroke:#ffffff;stroke-width:2"/>
<polyline points="811.0 153.0,814.0 152.0,816.0 150.0,819.0 149.0,825.0 147.0" style="fill:none;stroke:#ffffff;stroke-width:2"/>
<polyline points="828.0 143.0,828.0 147.0,829.0 149.0,830.0 146.0,832.0 143.0,834.0 145.0,835.0 148.0,838.0 145.0,841.0 141.0,842.0 139.0,844.0 137.0,843.0 140.0,842.0 146.0,841.0 150.0,842.0 153.0" style="fill:none;stroke:#ffffff;stroke-width:2"/>
<polyline points="852.0 140.0,851.0 144.0,851.0 147.0,853.0 151.0,856.0 150.0,861.0 148.0" style="fill:none;stroke:#ffffff;stroke-width:2"/>
<polyline points="855.0 131.0,858.0 130.0,860.0 129.0,862.0 129.0" style="fill:none;stroke:#ffffff;stroke-width:2"/>
<polyline points="855.0 141.0,858.0 140.0,862.0 139.0" style="fill:none;stroke:#ffffff;stroke-width:2"/>
<polyline points="870.0 108.0,873.0 112.0,875.0 114.0,877.0 118.0,878.0 123.0,881.0 134.0,881.0 139.0,880.0 148.0,879.0 152.0,872.0 167.0" style="fill:none;stroke:#ffffff;stroke-width:2"/>
<polyline points="893.0 131.0,892.0 136.0,891.0 140.0,888.0 151.0,887.0 154.0,886.0 159.0,885.0 163.0" style="fill:none;stroke:#ffffff;stroke-width:2"/>
<polyline points="892.0 132.0,895.0 132.0,898.0 131.0,902.0 131.0,904.0 132.0,908.0 136.0,906.0 139.0,904.0 141.0,902.0 142.0" style="fill:none;stroke:#ffffff;stroke-width:2"/>
<polyline points="900.0 157.0,902.0 154.0,905.0 150.0,907.0 149.0,909.0 146.0,910.0 143.0,912.0 140.0,914.0 142.0,914.0 148.0,913.0 153.0,912.0 158.0" style="fill:none;stroke:#ffffff;stroke-width:2"/>
<polyline points="907.0 151.0,911.0 149.0,914.0 148.0,918.0 148.0" style="fill:none;stroke:#ffffff;stroke-width:2"/>
<polyline points="930.0 143.0,929.0 146.0,928.0 151.0,928.0 155.0,927.0 158.0,926.0 159.0" style="fill:none;stroke:#ffffff;stroke-width:2"/>
<polyline points="922.0 125.0,925.0 123.0,931.0 122.0,935.0 121.0,945.0 120.0,948.0 121.0,950.0 123.0,950.0 127.0,947.0 131.0,946.0 133.0,941.0 137.0,939.0 139.0,934.0 143.0,933.0 145.0,933.0 148.0,934.0 152.0,935.0 154.0,936.0 160.0,937.0 163.0,937.0 171.0,936.0 185.0,936.0 187.0" style="fill:none;stroke:#ffffff;stroke-width:2"/>
<polyline points="958.0 141.0,958.0 144.0,957.0 146.0,956.0 150.0,955.0 155.0,955.0 159.0,955.0 166.0" style="fill:none;stroke:#ffffff;stroke-width:2"/>
<polyline points="944.0 146.0,948.0 145.0,954.0 144.0,956.0 143.0,959.0 142.0,962.0 142.0,966.0 141.0,972.0 140.0,972.0 144.0,971.0 147.0,971.0 150.0,970.0 152.0,970.0 157.0,969.0 160.0,969.0 162.0" style="fill:none;stroke:#ffffff;stroke-width:2"/>
<polyline points="982.0 145.0,980.0 146.0,978.0 148.0,976.0 152.0,976.0 156.0,977.0 158.0,980.0 159.0,982.0 159.0" style="fill:none;stroke:#ffffff;stroke-width:2"/>
<polyline points="996.0 147.0,994.0 151.0,993.0 156.0,993.0 161.0,995.0 162.0,1000.0 160.0,1003.0 160.0,1005.0 160.0" style="fill:none;stroke:#ffffff;stroke-width:2"/>
<polyline points="1010.0 141.0,1012.0 144.0,1012.0 148.0,1011.0 150.0,1011.0 154.0,1012.0 156.0,1014.0 157.0,1017.0 157.0" style="fill:none;stroke:#ffffff;stroke-width:2"/>
<polyline points="1009.0 130.0,1012.0 129.0,1017.0 129.0,1025.0 129.0" style="fill:none;stroke:#ffffff;stroke-width:2"/>
<polyline points="1008.0 141.0,1013.0 141.0,1023.0 141.0" style="fill:none;stroke:#ffffff;stroke-width:2"/>
<polyline points="820.0 196.0,819.0 199.0,823.0 199.0,826.0 198.0,828.0 196.0,829.0 194.0,831.0 195.0,836.0 195.0,839.0 194.0,843.0 192.0,846.0 190.0,848.0 188.0,853.0 182.0,854.0 179.0,854.0 174.0,852.0 169.0,849.0 167.0,841.0 168.0,837.0 169.0,832.0 171.0,822.0 176.0,817.0 179.0,808.0 186.0,800.0 194.0,798.0 198.0,794.0 209.0,795.0 212.0,800.0 220.0,804.0 222.0,813.0 226.0,822.0 227.0,827.0 227.0,835.0 225.0,838.0 224.0,842.0 222.0,846.0 219.0" style="fill:none;stroke:#ffffff;stroke-width:2"/>
<polyline points="882.0 178.0,881.0 183.0,880.0 185.0,878.0 193.0,876.0 198.0,875.0 202.0,874.0 205.0,873.0 212.0,873.0 216.0,874.0 219.0,877.0 221.0,878.0 220.0" style="fill:none;stroke:#ffffff;stroke-width:2"/>
<polyline points="866.0 205.0,870.0 205.0,880.0 206.0,882.0 207.0,882.0 211.0,883.0 214.0" style="fill:none;stroke:#ffffff;stroke-width:2"/>
<polyline points="888.0 210.0,888.0 213.0,887.0 217.0,888.0 214.0,890.0 212.0,891.0 210.0,893.0 208.0,896.0 208.0,896.0 211.0,897.0 214.0,899.0 212.0,901.0 211.0,903.0 209.0,906.0 207.0,908.0 209.0,911.0 210.0,915.0 208.0,918.0 205.0,916.0 204.0,914.0 206.0,913.0 209.0,914.0 213.0,915.0 215.0,918.0 218.0,922.0 219.0" style="fill:none;stroke:#ffffff;stroke-width:2"/>
<polyline points="895.0 191.0,896.0 190.0" style="fill:none;stroke:#ffffff;stroke-width:2"/>
<polyline points="967.0 177.0,966.0 180.0,963.0 184.0,962.0 187.0,960.0 191.0,956.0 203.0,953.0 214.0,953.0 218.0,954.0 220.0,958.0 223.0,960.0 222.0,962.0 222.0" style="fill:none;stroke:#ffffff;stroke-width:2"/>
<polyline points="942.0 207.0,948.0 206.0,951.0 205.0,955.0 205.0,959.0 204.0,962.0 204.0" style="fill:none;stroke:#ffffff;stroke-width:2"/>
<polyline points="978.0 202.0,977.0 204.0,976.0 209.0,976.0 213.0" style="fill:none;stroke:#ffffff;stroke-width:2"/>
<polyline points="971.0 206.0,973.0 205.0,976.0 205.0,978.0 204.0,982.0 204.0,985.0 203.0" style="fill:none;stroke:#ffffff;stroke-width:2"/>
<polyline points="993.0 214.0,995.0 212.0,1002.0 204.0,1003.0 202.0,1006.0 194.0,1007.0 192.0,1008.0 188.0,1008.0 183.0,1010.0 181.0,1010.0 185.0,1011.0 192.0,1011.0 196.0,1012.0 199.0,1013.0 203.0,1014.0 209.0,1015.0 212.0,1012.0 214.0,1009.0 215.0,1006.0 215.0,999.0 215.0" style="fill:none;stroke:#ffffff;stroke-width:2"/>
<polyline points="1031.0 183.0,1031.0 188.0,1030.0 190.0,1029.0 195.0,1028.0 197.0,1027.0 203.0,1027.0 208.0,1028.0 212.0,1029.0 215.0,1032.0 216.0,1034.0 215.0,1037.0 214.0" style="fill:none;stroke:#ffffff;stroke-width:2"/>
<polyline points="1019.0 200.0,1025.0 199.0,1029.0 199.0,1032.0 198.0,1037.0 198.0,1040.0 197.0" style="fill:none;stroke:#ffffff;stroke-width:2"/>
<polyline points="514.0 416.0,517.0 415.0,522.0 413.0,525.0 412.0,530.0 411.0,533.0 410.0,536.0 408.0,540.0 407.0,542.0 406.0,546.0 405.0,549.0 404.0,552.0 402.0,555.0 401.0,560.0 399.0,563.0 398.0,568.0 397.0,570.0 396.0,573.0 395.0,575.0 393.0,578.0 392.0,580.0 391.0,583.0 390.0,587.0 388.0,591.0 387.0,594.0 386.0,597.0 384.0,599.0 383.0,603.0 382.0,606.0 381.0,604.0 381.0" style="fill:none;stroke:#ffffff;stroke-width:2"/>
<polyline points="592.0 371.0,594.0 372.0,598.0 373.0,601.0 375.0,603.0 376.0,608.0 379.0,606.0 381.0,602.0 386.0,600.0 389.0,597.0 394.0" style="fill:none;stroke:#ffffff;stroke-width:2"/>
<polyline points="538.0 359.0,540.0 360.0,542.0 362.0,543.0 364.0,545.0 367.0,546.0 369.0,549.0 367.0,550.0 363.0,551.0 361.0,552.0 358.0,553.0 356.0,553.0 354.0" style="fill:none;stroke:#ffffff;stroke-width:2"/>
<polyline points="535.0 348.0,538.0 347.0,543.0 346.0,545.0 345.0,549.0 345.0,556.0 344.0,555.0 341.0,554.0 339.0,553.0 336.0" style="fill:none;stroke:#ffffff;stroke-width:2"/>
<polyline points="573.0 325.0,571.0 327.0,568.0 331.0,567.0 333.0,566.0 336.0,565.0 341.0,564.0 344.0,564.0 352.0,563.0 354.0,563.0 357.0,564.0 359.0,564.0 363.0,565.0 365.0,566.0 369.0,567.0 371.0" style="fill:none;stroke:#ffffff;stroke-width:2"/>
<polyline points="577.0 347.0,579.0 346.0,581.0 348.0,580.0 352.0,579.0 355.0,578.0 357.0,576.0 360.0" style="fill:none;stroke:#ffffff;stroke-width:2"/>
<polyline points="587.0 339.0,585.0 341.0,584.0 345.0,583.0 347.0,583.0 350.0,584.0 355.0,586.0 357.0,588.0 357.0" style="fill:none;stroke:#ffffff;stroke-width:2"/>
<polyline points="574.0 337.0,577.0 336.0,581.0 336.0,588.0 335.0,591.0 334.0,589.0 332.0,588.0 328.0,587.0 326.0" style="fill:none;stroke:#ffffff;stroke-width:2"/>
<polyline points="596.0 350.0,598.0 352.0,597.0 355.0,596.0 357.0,594.0 360.0,593.0 362.0" style="fill:none;stroke:#ffffff;stroke-width:2"/>
<polyline points="607.0 327.0,606.0 333.0,605.0 337.0,605.0 340.0,604.0 344.0,604.0 350.0,605.0 353.0,607.0 355.0" style="fill:none;stroke:#ffffff;stroke-width:2"/>
<polyline points="601.0 343.0,604.0 342.0,606.0 341.0,608.0 340.0" style="fill:none;stroke:#ffffff;stroke-width:2"/>
<polyline points="615.0 314.0,618.0 316.0,619.0 319.0,620.0 321.0,622.0 328.0,622.0 331.0,621.0 339.0,620.0 342.0,618.0 347.0,617.0 349.0,616.0 352.0" style="fill:none;stroke:#ffffff;stroke-width:2"/>
<polyline points="768.0 360.0,771.0 359.0,775.0 359.0,782.0 358.0,787.0 358.0,789.0 357.0,793.0 357.0,799.0 356.0,803.0 356.0,806.0 355.0,810.0 355.0,813.0 354.0,817.0 354.0,819.0 353.0,822.0 352.0,825.0 352.0,827.0 351.0,830.0 351.0,832.0 350.0,836.0 350.0,839.0 349.0,842.0 349.0,846.0 348.0,850.0 348.0,854.0 347.0,860.0 346.0,864.0 345.0,868.0 345.0,871.0 344.0,876.0 343.0,880.0 343.0,883.0 342.0,887.0 342.0,890.0 341.0,894.0 341.0,896.0 340.0,899.0 340.0,901.0 339.0,905.0 339.0" style="fill:none;stroke:#ffffff;stroke-width:2"/>
<polyline points="886.0 330.0,889.0 332.0,892.0 333.0,896.0 334.0,898.0 335.0,901.0 336.0,905.0 337.0,908.0 338.0,907.0 341.0,905.0 342.0,901.0 345.0,899.0 347.0,894.0 353.0,893.0 355.0" style="fill:none;stroke:#ffffff;stroke-width:2"/>
<polyline points="821.0 304.0,823.0 307.0,824.0 309.0,825.0 314.0,826.0 317.0,828.0 319.0,829.0 317.0,830.0 314.0,831.0 312.0,832.0 309.0,834.0 305.0,835.0 302.0,836.0 300.0,837.0 299.0" style="fill:none;stroke:#ffffff;stroke-width:2"/>
<polyline points="815.0 292.0,817.0 290.0,821.0 289.0,826.0 289.0,828.0 288.0,832.0 288.0,835.0 287.0,840.0 286.0,839.0 283.0,838.0 281.0,837.0 279.0" style="fill:none;stroke:#ffffff;stroke-width:2"/>
<polyline points="862.0 264.0,860.0 265.0,859.0 267.0,855.0 271.0,854.0 273.0,853.0 276.0,851.0 279.0,850.0 283.0,847.0 292.0,846.0 297.0,846.0 304.0,847.0 313.0,849.0 316.0,853.0 320.0,854.0 321.0" style="fill:none;stroke:#ffffff;stroke-width:2"/>
<polyline points="859.0 296.0,862.0 295.0,866.0 297.0,864.0 300.0,863.0 302.0,861.0 305.0,858.0 310.0,857.0 312.0" style="fill:none;stroke:#ffffff;stroke-width:2"/>
<polyline points="870.0 290.0,867.0 293.0,866.0 298.0,866.0 304.0,867.0 307.0,870.0 309.0" style="fill:none;stroke:#ffffff;stroke-width:2"/>
<polyline points="857.0 287.0,861.0 286.0,866.0 284.0,870.0 283.0,870.0 280.0,870.0 278.0" style="fill:none;stroke:#ffffff;stroke-width:2"/>
<polyline points="879.0 293.0,879.0 297.0,879.0 302.0" style="fill:none;stroke:#ffffff;stroke-width:2"/>
<polyline points="875.0 299.0,878.0 297.0,880.0 296.0,883.0 295.0" style="fill:none;stroke:#ffffff;stroke-width:2"/>
<polyline points="890.0 302.0,892.0 299.0,894.0 295.0,895.0 291.0,896.0 288.0,897.0 284.0,898.0 279.0,898.0 275.0,899.0 277.0,899.0 282.0,900.0 292.0,901.0 296.0,903.0 299.0,904.0 302.0,903.0 304.0,900.0 307.0,897.0 308.0,894.0 308.0" style="fill:none;stroke:#ffffff;stroke-width:2"/>
<polyline points="911.0 291.0,913.0 293.0,913.0 297.0,911.0 301.0,909.0 303.0,908.0 304.0" style="fill:none;stroke:#ffffff;stroke-width:2"/>
<polyline points="918.0 285.0,916.0 287.0,915.0 290.0,915.0 295.0,916.0 299.0,918.0 299.0" style="fill:none;stroke:#ffffff;stroke-width:2"/>
<polyline points="902.0 277.0,906.0 277.0,915.0 276.0,919.0 275.0,918.0 271.0,917.0 268.0,915.0 264.0" style="fill:none;stroke:#ffffff;stroke-width:2"/>
<polyline points="930.0 294.0,931.0 297.0,930.0 299.0,928.0 302.0,927.0 304.0,925.0 307.0,924.0 309.0,922.0 311.0,921.0 313.0,919.0 315.0" style="fill:none;stroke:#ffffff;stroke-width:2"/>
<polyline points="945.0 270.0,946.0 267.0,945.0 273.0,944.0 275.0,943.0 280.0,942.0 282.0,941.0 285.0,940.0 291.0,941.0 296.0,943.0 298.0,946.0 297.0" style="fill:none;stroke:#ffffff;stroke-width:2"/>
<polyline points="934.0 284.0,937.0 283.0,940.0 283.0,942.0 282.0,945.0 281.0" style="fill:none;stroke:#ffffff;stroke-width:2"/>
<polyline points="961.0 278.0,961.0 281.0,960.0 286.0,959.0 290.0,959.0 292.0" style="fill:none;stroke:#ffffff;stroke-width:2"/>
<polyline points="953.0 288.0,955.0 286.0,957.0 285.0,962.0 283.0" style="fill:none;stroke:#ffffff;stroke-width:2"/>
<polyline points="972.0 290.0,974.0 288.0,975.0 285.0,977.0 281.0,979.0 275.0,981.0 271.0,982.0 267.0,983.0 270.0,983.0 274.0,984.0 279.0,984.0 282.0,985.0 285.0,985.0 290.0,984.0 293.0,981.0 295.0,977.0 296.0,973.0 296.0" style="fill:none;stroke:#ffffff;stroke-width:2"/>
<polyline points="996.0 263.0,995.0 265.0,994.0 269.0,994.0 273.0,995.0 288.0,995.0 291.0,998.0 292.0" style="fill:none;stroke:#ffffff;stroke-width:2"/>
<polyline points="985.0 279.0,990.0 278.0,995.0 276.0" style="fill:none;stroke:#ffffff;stroke-width:2"/>
<polyline points="1008.0 245.0,1009.0 249.0,1010.0 251.0,1011.0 255.0,1013.0 259.0,1016.0 268.0,1018.0 272.0,1018.0 275.0,1017.0 291.0,1013.0 298.0,1011.0 302.0,1007.0 309.0" style="fill:none;stroke:#ffffff;stroke-width:2"/>
<polyline points="505.0 410.0,506.0 412.0,507.0 413.0" style="fill:none;stroke:#ffffff;stroke-width:2"/>
<polyline points="509.0 417.0,510.0 418.0" style="fill:none;stroke:#ffffff;stroke-width:2"/>
<polyline points="515.0 427.0,517.0 429.0" style="fill:none;stroke:#ffffff;stroke-width:2"/>
<polyline points="769.0 359.0,770.0 361.0" style="fill:none;stroke:#ffffff;stroke-width:2"/>
<polyline points="772.0 369.0,773.0 372.0" style="fill:none;stroke:#ffffff;stroke-width:2"/>
<polyline points="503.0 378.0,505.0 380.0,505.0 384.0,506.0 397.0,505.0 400.0,506.0 397.0,506.0 393.0,507.0 387.0,507.0 383.0,508.0 374.0,508.0 370.0,509.0 363.0,510.0 360.0,510.0 356.0,511.0 353.0,513.0 348.0,514.0 346.0,516.0 340.0,518.0 337.0,519.0 334.0,520.0 330.0,521.0 327.0,522.0 322.0,523.0 319.0,525.0 315.0,526.0 311.0,527.0 308.0,529.0 303.0,530.0 301.0,533.0 296.0,534.0 294.0" style="fill:none;stroke:#ffffff;stroke-width:2"/>
<polyline points="493.0 387.0,495.0 389.0,498.0 394.0,500.0 396.0,505.0 399.0,507.0 397.0,511.0 392.0,513.0 390.0,515.0 387.0,517.0 385.0,518.0 384.0" style="fill:none;stroke:#ffffff;stroke-width:2"/>
<polyline points="444.0 400.0,445.0 399.0" style="fill:none;stroke:#ffffff;stroke-width:2"/>
<polyline points="452.0 418.0,453.0 419.0" style="fill:none;stroke:#ffffff;stroke-width:2"/>
<polyline points="469.0 464.0,470.0 465.0" style="fill:none;stroke:#ffffff;stroke-width:2"/>
<polyline points="472.0 470.0,473.0 471.0" style="fill:none;stroke:#ffffff;stroke-width:2"/>
<polyline points="476.0 479.0,478.0 481.0" style="fill:none;stroke:#ffffff;stroke-width:2"/>
<polyline points="456.0 433.0,456.0 431.0" style="fill:none;stroke:#ffffff;stroke-width:2"/>
<polyline points="453.0 429.0,454.0 430.0" style="fill:none;stroke:#ffffff;stroke-width:2"/>
<polyline points="457.0 434.0,458.0 436.0,459.0 437.0" style="fill:none;stroke:#ffffff;stroke-width:2"/>
<polyline points="461.0 445.0,462.0 446.0" style="fill:none;stroke:#ffffff;stroke-width:2"/>
<polyline points="464.0 450.0,465.0 451.0" style="fill:none;stroke:#ffffff;stroke-width:2"/>
<polyline points="453.0 395.0,455.0 395.0" style="fill:none;stroke:#ffffff;stroke-width:2"/>
<polyline points="470.0 387.0,472.0 386.0" style="fill:none;stroke:#ffffff;stroke-width:2"/>
<polyline points="483.0 382.0,485.0 380.0,487.0 380.0" style="fill:none;stroke:#ffffff;stroke-width:2"/>
<polyline points="499.0 375.0,502.0 373.0" style="fill:none;stroke:#ffffff;stroke-width:2"/>
<polyline points="513.0 369.0,515.0 367.0,517.0 367.0" style="fill:none;stroke:#ffffff;stroke-width:2"/>
<polyline points="524.0 364.0,525.0 363.0" style="fill:none;stroke:#ffffff;stroke-width:2"/>
<polyline points="538.0 363.0,539.0 364.0" style="fill:none;stroke:#ffffff;stroke-width:2"/>
<polyline points="544.0 377.0,545.0 381.0,545.0 383.0" style="fill:none;stroke:#ffffff;stroke-width:2"/>
<polyline points="549.0 394.0,551.0 394.0" style="fill:none;stroke:#ffffff;stroke-width:2"/>
<polyline points="563.0 431.0,564.0 432.0" style="fill:none;stroke:#ffffff;stroke-width:2"/>
<polyline points="476.0 486.0,478.0 484.0,480.0 484.0" style="fill:none;stroke:#ffffff;stroke-width:2"/>
<polyline points="494.0 479.0,498.0 477.0,500.0 476.0" style="fill:none;stroke:#ffffff;stroke-width:2"/>
<polyline points="521.0 470.0,522.0 469.0" style="fill:none;stroke:#ffffff;stroke-width:2"/>
<polyline points="543.0 461.0,544.0 460.0" style="fill:none;stroke:#ffffff;stroke-width:2"/>
<polyline points="568.0 438.0,568.0 436.0" style="fill:none;stroke:#ffffff;stroke-width:2"/>
<polyline points="549.0 387.0,550.0 388.0" style="fill:none;stroke:#ffffff;stroke-width:2"/>
<polyline points="556.0 407.0,557.0 409.0" style="fill:none;stroke:#ffffff;stroke-width:2"/>
<polyline points="561.0 416.0,562.0 417.0" style="fill:none;stroke:#ffffff;stroke-width:2"/>
<polyline points="561.0 453.0,559.0 453.0" style="fill:none;stroke:#ffffff;stroke-width:2"/>
<polyline points="708.0 314.0,711.0 313.0" style="fill:none;stroke:#ffffff;stroke-width:2"/>
<polyline points="759.0 304.0,762.0 303.0" style="fill:none;stroke:#ffffff;stroke-width:2"/>
<polyline points="779.0 299.0,783.0 299.0" style="fill:none;stroke:#ffffff;stroke-width:2"/>
<polyline points="792.0 297.0,798.0 297.0" style="fill:none;stroke:#ffffff;stroke-width:2"/>
<polyline points="733.0 310.0,731.0 310.0" style="fill:none;stroke:#ffffff;stroke-width:2"/>
<polyline points="712.0 319.0,713.0 318.0" style="fill:none;stroke:#ffffff;stroke-width:2"/>
<polyline points="716.0 333.0,719.0 335.0" style="fill:none;stroke:#ffffff;stroke-width:2"/>
<polyline points="719.0 354.0,721.0 356.0" style="fill:none;stroke:#ffffff;stroke-width:2"/>
<polyline points="723.0 371.0,724.0 372.0" style="fill:none;stroke:#ffffff;stroke-width:2"/>
<polyline points="728.0 385.0,729.0 386.0" style="fill:none;stroke:#ffffff;stroke-width:2"/>
<polyline points="730.0 404.0,731.0 405.0" style="fill:none;stroke:#ffffff;stroke-width:2"/>
<polyline points="735.0 412.0,736.0 411.0" style="fill:none;stroke:#ffffff;stroke-width:2"/>
<polyline points="758.0 407.0,761.0 406.0" style="fill:none;stroke:#ffffff;stroke-width:2"/>
<polyline points="778.0 404.0,781.0 403.0" style="fill:none;stroke:#ffffff;stroke-width:2"/>
<polyline points="791.0 401.0,793.0 401.0" style="fill:none;stroke:#ffffff;stroke-width:2"/>
<polyline points="801.0 401.0,804.0 400.0" style="fill:none;stroke:#ffffff;stroke-width:2"/>
<polyline points="829.0 394.0,830.0 393.0" style="fill:none;stroke:#ffffff;stroke-width:2"/>
<polyline points="807.0 300.0,808.0 302.0" style="fill:none;stroke:#ffffff;stroke-width:2"/>
<polyline points="812.0 320.0,812.0 322.0" style="fill:none;stroke:#ffffff;stroke-width:2"/>
<polyline points="811.0 332.0,812.0 335.0" style="fill:none;stroke:#ffffff;stroke-width:2"/>
<polyline points="814.0 343.0,814.0 347.0" style="fill:none;stroke:#ffffff;stroke-width:2"/>
<polyline points="815.0 352.0,816.0 355.0" style="fill:none;stroke:#ffffff;stroke-width:2"/>
<polyline points="818.0 363.0,819.0 365.0" style="fill:none;stroke:#ffffff;stroke-width:2"/>
<polyline points="821.0 374.0,822.0 375.0" style="fill:none;stroke:#ffffff;stroke-width:2"/>
<polyline points="824.0 383.0,825.0 385.0,825.0 390.0,826.0 389.0" style="fill:none;stroke:#ffffff;stroke-width:2"/>
<polyline points="718.0 359.0,718.0 361.0" style="fill:none;stroke:#ffffff;stroke-width:2"/>
<polyline points="720.0 369.0,721.0 370.0" style="fill:none;stroke:#ffffff;stroke-width:2"/>
<polyline points="728.0 313.0,729.0 312.0" style="fill:none;stroke:#ffffff;stroke-width:2"/>
<polyline points="432.0 405.0,435.0 407.0,438.0 408.0,440.0 410.0,444.0 412.0,441.0 413.0,439.0 414.0,436.0 416.0,434.0 417.0,431.0 418.0,429.0 418.0" style="fill:none;stroke:#ffffff;stroke-width:2"/>
<polyline points="439.0 410.0,436.0 409.0,431.0 410.0,427.0 411.0,424.0 411.0,420.0 412.0,417.0 412.0,401.0 413.0,392.0 413.0,375.0 412.0,372.0 411.0,368.0 411.0,365.0 410.0,360.0 409.0,358.0 408.0,355.0 407.0,353.0 406.0,344.0 401.0,342.0 399.0,337.0 393.0,335.0 389.0,332.0 382.0,331.0 378.0,330.0 373.0,330.0 370.0,329.0 358.0,329.0 354.0,326.0 352.0,321.0 350.0,317.0 348.0,310.0 344.0,307.0 342.0" style="fill:none;stroke:#ffffff;stroke-width:2"/>
<polyline points="215.0 205.0,214.0 208.0,214.0 211.0,213.0 215.0,212.0 217.0,210.0 222.0,209.0 224.0,208.0 229.0,207.0 231.0,206.0 235.0,206.0 237.0" style="fill:none;stroke:#ffffff;stroke-width:2"/>
<polyline points="195.0 224.0,199.0 223.0,203.0 223.0,207.0 222.0,209.0 221.0,213.0 220.0,216.0 219.0,218.0 218.0,220.0 216.0,220.0 214.0" style="fill:none;stroke:#ffffff;stroke-width:2"/>
<polyline points="225.0 195.0,224.0 200.0,223.0 202.0,222.0 206.0,220.0 210.0,217.0 218.0,216.0 221.0,214.0 228.0,213.0 231.0,212.0 235.0,214.0 234.0,215.0 232.0,217.0 230.0,218.0 228.0,221.0 230.0,223.0 232.0,226.0 232.0,227.0 230.0,229.0 228.0,228.0 225.0,226.0 226.0,225.0 228.0,224.0 231.0,225.0 235.0,229.0 235.0,231.0 233.0,232.0 232.0" style="fill:none;stroke:#ffffff;stroke-width:2"/>
<polyline points="257.0 197.0,255.0 200.0,255.0 203.0,254.0 205.0" style="fill:none;stroke:#ffffff;stroke-width:2"/>
<polyline points="264.0 199.0,262.0 202.0,261.0 204.0,260.0 207.0,260.0 209.0" style="fill:none;stroke:#ffffff;stroke-width:2"/>
<polyline points="282.0 200.0,281.0 197.0,279.0 198.0,274.0 202.0,272.0 204.0,270.0 208.0,270.0 211.0,272.0 214.0,274.0 216.0,275.0 220.0,276.0 223.0,275.0 228.0,272.0 232.0,269.0 234.0,266.0 235.0,261.0 236.0" style="fill:none;stroke:#ffffff;stroke-width:2"/>
<polyline points="286.0 219.0,285.0 223.0,284.0 229.0,283.0 232.0" style="fill:none;stroke:#ffffff;stroke-width:2"/>
<polyline points="284.0 215.0,287.0 214.0,291.0 214.0,291.0 217.0,289.0 219.0,288.0 221.0,286.0 223.0" style="fill:none;stroke:#ffffff;stroke-width:2"/>
<polyline points="293.0 230.0,295.0 227.0,297.0 225.0,298.0 222.0,299.0 220.0,300.0 216.0,302.0 211.0,303.0 214.0,303.0 219.0,303.0 227.0" style="fill:none;stroke:#ffffff;stroke-width:2"/>
<polyline points="296.0 224.0,298.0 223.0,301.0 222.0,304.0 221.0" style="fill:none;stroke:#ffffff;stroke-width:2"/>
<polyline points="315.0 213.0,313.0 216.0,311.0 220.0,310.0 225.0,313.0 226.0,314.0 225.0" style="fill:none;stroke:#ffffff;stroke-width:2"/>
<polyline points="326.0 212.0,324.0 215.0,323.0 218.0,322.0 222.0,321.0 227.0,324.0 228.0,326.0 227.0,329.0 225.0" style="fill:none;stroke:#ffffff;stroke-width:2"/>
<polyline points="323.0 209.0,325.0 208.0,328.0 207.0,331.0 207.0,333.0 207.0" style="fill:none;stroke:#ffffff;stroke-width:2"/>
<polyline points="323.0 216.0,326.0 215.0,328.0 214.0,331.0 214.0" style="fill:none;stroke:#ffffff;stroke-width:2"/>
<polyline points="348.0 194.0,347.0 196.0,346.0 200.0,345.0 203.0,344.0 205.0" style="fill:none;stroke:#ffffff;stroke-width:2"/>
<polyline points="350.0 197.0,350.0 200.0,349.0 203.0,349.0 205.0" style="fill:none;stroke:#ffffff;stroke-width:2"/>
<polyline points="382.0 185.0,381.0 188.0,376.0 202.0,375.0 207.0,373.0 212.0,369.0 221.0,367.0 226.0,365.0 230.0,361.0 239.0,359.0 242.0,358.0 245.0,356.0 249.0,356.0 252.0" style="fill:none;stroke:#ffffff;stroke-width:2"/>
<polyline points="347.0 218.0,351.0 218.0,362.0 217.0,366.0 216.0,370.0 214.0,381.0 208.0,384.0 205.0,388.0 201.0" style="fill:none;stroke:#ffffff;stroke-width:2"/>
<polyline points="393.0 182.0,392.0 184.0,391.0 189.0,389.0 192.0,388.0 197.0,385.0 202.0,381.0 212.0,379.0 216.0,376.0 224.0,374.0 228.0,373.0 232.0,372.0 234.0,373.0 239.0,375.0 238.0,377.0 235.0,380.0 234.0,381.0 236.0,383.0 238.0,386.0 237.0,388.0 234.0,389.0 232.0,388.0 229.0,387.0 234.0,388.0 237.0,390.0 238.0" style="fill:none;stroke:#ffffff;stroke-width:2"/>
<polyline points="205.0 266.0,206.0 269.0,206.0 273.0,205.0 276.0,204.0 278.0,202.0 284.0,201.0 289.0" style="fill:none;stroke:#ffffff;stroke-width:2"/>
<polyline points="190.0 264.0,193.0 262.0,198.0 260.0,202.0 259.0,212.0 258.0,215.0 259.0,217.0 262.0,215.0 268.0,214.0 270.0,212.0 272.0,209.0 274.0,205.0 276.0" style="fill:none;stroke:#ffffff;stroke-width:2"/>
<polyline points="214.0 286.0,216.0 284.0,221.0 275.0,220.0 279.0,221.0 282.0,221.0 284.0" style="fill:none;stroke:#ffffff;stroke-width:2"/>
<polyline points="218.0 282.0,220.0 281.0,223.0 281.0" style="fill:none;stroke:#ffffff;stroke-width:2"/>
<polyline points="233.0 275.0,232.0 278.0,231.0 283.0,230.0 284.0" style="fill:none;stroke:#ffffff;stroke-width:2"/>
<polyline points="225.0 265.0,228.0 263.0,230.0 262.0,233.0 260.0,237.0 259.0,243.0 259.0,244.0 262.0,243.0 264.0,241.0 266.0,238.0 268.0,236.0 270.0,234.0 274.0,235.0 277.0,235.0 280.0,236.0 285.0,236.0 288.0,235.0 292.0,235.0 301.0,234.0 305.0,234.0 308.0,235.0 320.0" style="fill:none;stroke:#ffffff;stroke-width:2"/>
<polyline points="250.0 278.0,250.0 282.0,249.0 287.0,249.0 291.0,248.0 292.0" style="fill:none;stroke:#ffffff;stroke-width:2"/>
<polyline points="243.0 278.0,245.0 277.0,250.0 276.0,253.0 275.0,256.0 278.0,255.0 281.0,255.0 285.0,255.0 290.0" style="fill:none;stroke:#ffffff;stroke-width:2"/>
<polyline points="264.0 276.0,263.0 278.0,262.0 281.0,262.0 286.0,264.0 288.0,265.0 287.0" style="fill:none;stroke:#ffffff;stroke-width:2"/>
<polyline points="273.0 273.0,273.0 276.0,272.0 279.0,272.0 283.0,271.0 285.0,272.0 288.0,274.0 287.0,278.0 287.0,279.0 288.0" style="fill:none;stroke:#ffffff;stroke-width:2"/>
<polyline points="287.0 273.0,287.0 277.0,286.0 281.0,286.0 285.0,289.0 286.0,292.0 285.0" style="fill:none;stroke:#ffffff;stroke-width:2"/>
<polyline points="282.0 265.0,285.0 265.0,291.0 264.0,295.0 264.0,298.0 263.0" style="fill:none;stroke:#ffffff;stroke-width:2"/>
<polyline points="278.0 273.0,283.0 273.0,287.0 272.0,291.0 272.0,293.0 273.0" style="fill:none;stroke:#ffffff;stroke-width:2"/>
<polyline points="308.0 276.0,308.0 280.0,311.0 279.0,313.0 278.0,314.0 275.0,316.0 273.0,317.0 276.0,318.0 281.0,316.0 283.0,314.0 284.0" style="fill:none;stroke:#ffffff;stroke-width:2"/>
<polyline points="201.0 305.0,199.0 309.0,194.0 322.0,195.0 326.0,196.0 328.0,200.0 328.0,202.0 327.0,212.0 323.0" style="fill:none;stroke:#ffffff;stroke-width:2"/>
<polyline points="174.0 312.0,177.0 310.0,179.0 309.0,186.0 305.0,189.0 304.0,193.0 302.0,197.0 301.0,202.0 299.0,206.0 299.0,209.0 300.0" style="fill:none;stroke:#ffffff;stroke-width:2"/>
<polyline points="184.0 318.0,187.0 317.0,189.0 316.0,193.0 315.0,195.0 314.0,199.0 313.0,202.0 312.0,205.0 312.0" style="fill:none;stroke:#ffffff;stroke-width:2"/>
<polyline points="214.0 337.0,215.0 333.0,216.0 330.0,217.0 325.0,218.0 321.0,220.0 316.0,221.0 314.0,222.0 317.0,224.0 322.0,227.0 321.0,228.0 319.0,231.0 315.0,233.0 312.0,233.0 317.0,232.0 323.0,233.0 325.0,233.0 327.0" style="fill:none;stroke:#ffffff;stroke-width:2"/>
<polyline points="242.0 317.0,241.0 322.0,240.0 326.0,240.0 329.0,239.0 332.0,237.0 337.0,236.0 339.0" style="fill:none;stroke:#ffffff;stroke-width:2"/>
<polyline points="239.0 308.0,241.0 307.0,247.0 305.0,250.0 305.0,252.0 306.0,252.0 311.0,250.0 314.0,247.0 317.0,244.0 319.0,245.0 321.0,248.0 322.0,250.0 323.0,252.0 325.0,252.0 329.0,251.0 331.0,249.0 333.0,247.0 334.0,246.0 335.0" style="fill:none;stroke:#ffffff;stroke-width:2"/>
<polyline points="259.0 314.0,259.0 317.0,260.0 325.0,264.0 325.0" style="fill:none;stroke:#ffffff;stroke-width:2"/>
<polyline points="261.0 311.0,263.0 309.0,267.0 308.0" style="fill:none;stroke:#ffffff;stroke-width:2"/>
<polyline points="259.0 318.0,261.0 317.0,265.0 316.0,266.0 315.0" style="fill:none;stroke:#ffffff;stroke-width:2"/>
<polyline points="277.0 307.0,277.0 311.0,278.0 315.0,278.0 319.0,278.0 323.0" style="fill:none;stroke:#ffffff;stroke-width:2"/>
<polyline points="274.0 298.0,279.0 298.0,283.0 299.0,286.0 301.0,288.0 303.0,289.0 305.0,290.0 309.0,290.0 313.0,289.0 316.0,286.0 321.0,284.0 323.0,281.0 325.0,276.0 329.0,272.0 331.0,269.0 332.0,266.0 333.0" style="fill:none;stroke:#ffffff;stroke-width:2"/>
<polyline points="296.0 310.0,295.0 314.0,294.0 319.0,294.0 321.0" style="fill:none;stroke:#ffffff;stroke-width:2"/>
<polyline points="295.0 295.0,300.0 295.0,303.0 297.0,305.0 299.0,307.0 303.0,308.0 310.0,307.0 312.0,305.0 317.0,303.0 319.0,297.0 324.0,292.0 327.0,290.0 328.0,285.0 329.0" style="fill:none;stroke:#ffffff;stroke-width:2"/>
<polyline points="313.0 306.0,312.0 312.0,311.0 315.0,312.0 319.0,315.0 319.0,317.0 318.0,318.0 317.0" style="fill:none;stroke:#ffffff;stroke-width:2"/>
<polyline points="314.0 304.0,316.0 302.0,319.0 302.0,322.0 301.0,324.0 301.0" style="fill:none;stroke:#ffffff;stroke-width:2"/>
<polyline points="313.0 310.0,316.0 311.0,317.0 310.0" style="fill:none;stroke:#ffffff;stroke-width:2"/>
<polyline points="332.0 301.0,332.0 305.0,331.0 307.0,331.0 311.0,330.0 313.0,330.0 315.0" style="fill:none;stroke:#ffffff;stroke-width:2"/>
<polyline points="328.0 283.0,332.0 282.0,337.0 282.0,340.0 283.0,348.0 286.0,352.0 289.0,353.0 291.0,356.0 299.0,355.0 302.0,351.0 307.0,348.0 309.0,344.0 312.0,336.0 316.0,333.0 318.0,327.0 319.0" style="fill:none;stroke:#ffffff;stroke-width:2"/>
<polyline points="378.0 299.0,377.0 301.0,376.0 305.0,376.0 309.0" style="fill:none;stroke:#ffffff;stroke-width:2"/>
<polyline points="383.0 300.0,384.0 303.0,384.0 307.0,383.0 311.0,383.0 307.0,384.0 305.0,386.0 302.0,387.0 300.0,390.0 297.0,393.0 295.0,396.0 298.0,396.0 303.0,395.0 308.0,395.0 311.0,397.0 321.0,398.0 323.0,400.0 326.0,404.0 329.0,406.0 330.0,409.0 330.0" style="fill:none;stroke:#ffffff;stroke-width:2"/>
<polyline points="377.0 283.0,379.0 281.0,376.0 282.0,378.0 283.0,380.0 280.0,378.0 283.0,379.0 282.0" style="fill:none;stroke:#ffffff;stroke-width:2"/>
<polyline points="315.0 252.0,313.0 254.0,310.0 255.0,311.0 253.0,312.0 253.0" style="fill:none;stroke:#ffffff;stroke-width:2"/>
<polyline points="568.0 445.0,571.0 444.0" style="fill:none;stroke:#ffffff;stroke-width:2"/>
<polyline points="565.0 423.0,566.0 424.0" style="fill:none;stroke:#ffffff;stroke-width:2"/>
<polyline points="614.0 210.0,616.0 209.0,620.0 208.0" style="fill:none;stroke:#ffffff;stroke-width:2"/>
<polyline points="597.0 214.0,598.0 213.0" style="fill:none;stroke:#ffffff;stroke-width:2"/>
<polyline points="601.0 214.0,604.0 213.0" style="fill:none;stroke:#ffffff;stroke-width:2"/>
<polyline points="616.0 209.0,618.0 209.0" style="fill:none;stroke:#ffffff;stroke-width:2"/>
<polyline points="628.0 206.0,629.0 205.0" style="fill:none;stroke:#ffffff;stroke-width:2"/>
<polyline points="645.0 201.0,648.0 200.0" style="fill:none;stroke:#ffffff;stroke-width:2"/>
<polyline points="656.0 199.0,657.0 198.0" style="fill:none;stroke:#ffffff;stroke-width:2"/>
<polyline points="682.0 193.0,684.0 192.0" style="fill:none;stroke:#ffffff;stroke-width:2"/>
<polyline points="691.0 191.0,693.0 191.0" style="fill:none;stroke:#ffffff;stroke-width:2"/>
<polyline points="701.0 191.0,704.0 190.0,706.0 190.0" style="fill:none;stroke:#ffffff;stroke-width:2"/>
<polyline points="724.0 187.0,728.0 187.0" style="fill:none;stroke:#ffffff;stroke-width:2"/>
<polyline points="737.0 185.0,738.0 184.0" style="fill:none;stroke:#ffffff;stroke-width:2"/>
<polyline points="757.0 183.0,760.0 182.0" style="fill:none;stroke:#ffffff;stroke-width:2"/>
<polyline points="483.0 501.0,484.0 504.0,486.0 506.0,490.0 506.0,494.0 505.0,497.0 504.0,499.0 502.0,501.0 501.0,504.0 499.0,506.0 498.0,508.0 496.0,513.0 492.0,516.0 491.0,518.0 490.0,522.0 490.0,524.0 491.0,527.0 490.0,529.0 488.0,533.0 485.0,535.0 483.0,538.0 482.0,540.0 481.0,543.0 480.0,547.0 480.0,550.0 479.0,554.0 479.0,558.0 478.0,562.0 478.0,564.0 476.0,567.0 475.0,569.0 473.0,572.0 468.0,573.0 465.0,574.0 463.0,574.0 461.0" style="fill:none;stroke:#ffffff;stroke-width:2"/>
<polyline points="733.0 428.0,733.0 432.0,735.0 434.0,739.0 434.0,748.0 433.0,752.0 432.0,755.0 431.0,758.0 431.0,761.0 430.0,764.0 428.0,766.0 427.0,770.0 426.0,773.0 424.0,775.0 423.0,779.0 423.0,782.0 424.0,784.0 425.0,787.0 426.0,789.0 424.0,791.0 423.0,795.0 420.0,797.0 419.0,800.0 418.0,804.0 416.0,808.0 415.0,810.0 414.0,813.0 415.0,818.0 416.0,822.0 416.0,829.0 415.0,832.0 413.0,833.0 410.0" style="fill:none;stroke:#ffffff;stroke-width:2"/>
<polyline points="528.0 497.0,527.0 500.0,528.0 503.0,529.0 505.0,530.0 509.0,531.0 515.0,532.0 517.0,533.0 520.0,533.0 523.0,534.0 526.0,534.0 530.0,535.0 533.0,537.0 537.0,538.0 540.0,539.0 542.0,540.0 545.0,541.0 546.0" style="fill:none;stroke:#ffffff;stroke-width:2"/>
<polyline points="788.0 434.0,789.0 437.0,790.0 443.0,790.0 447.0,791.0 450.0,791.0 454.0,792.0 458.0,792.0 462.0,793.0 465.0,794.0 470.0,795.0 472.0,795.0 475.0,796.0 478.0,797.0 481.0" style="fill:none;stroke:#ffffff;stroke-width:2"/>
<polyline points="609.0 522.0,608.0 527.0,608.0 530.0,607.0 536.0,606.0 539.0,605.0 548.0,605.0 553.0,607.0 568.0,608.0 571.0,610.0 574.0,614.0 581.0,617.0 584.0,626.0 594.0,629.0 598.0,640.0 617.0,642.0 623.0,645.0 635.0,646.0 640.0,647.0 646.0,648.0 657.0,647.0 668.0,646.0 673.0,645.0 684.0,644.0 690.0,642.0 712.0,642.0 717.0,643.0 731.0,644.0 735.0,645.0 738.0,645.0 740.0" style="fill:none;stroke:#ffffff;stroke-width:2"/>
<polyline points="619.0 760.0,619.0 765.0,618.0 775.0,618.0 780.0,616.0 790.0,615.0 794.0,614.0 801.0,614.0 805.0,614.0 811.0" style="fill:none;stroke:#ffffff;stroke-width:2"/>
<polyline points="631.0 768.0,630.0 770.0,629.0 778.0,628.0 781.0,627.0 785.0,625.0 797.0,625.0 800.0,626.0 803.0,627.0 805.0,631.0 808.0,635.0 806.0" style="fill:none;stroke:#ffffff;stroke-width:2"/>
<polyline points="618.0 793.0,620.0 792.0,628.0 789.0,630.0 788.0,633.0 787.0,635.0 786.0" style="fill:none;stroke:#ffffff;stroke-width:2"/>
<polyline points="675.0 759.0,674.0 763.0,673.0 766.0,673.0 771.0,672.0 775.0,670.0 785.0,669.0 788.0,668.0 792.0,667.0 797.0,666.0 803.0" style="fill:none;stroke:#ffffff;stroke-width:2"/>
<polyline points="668.0 765.0,670.0 767.0,671.0 769.0,673.0 774.0,675.0 778.0,678.0 780.0,681.0 780.0,683.0 778.0,685.0 775.0,688.0 771.0,689.0 769.0,690.0 765.0,691.0 763.0,691.0 767.0,690.0 769.0,690.0 773.0,689.0 775.0,689.0 779.0,688.0 783.0,687.0 785.0,687.0 790.0,687.0 792.0" style="fill:none;stroke:#ffffff;stroke-width:2"/>
<polyline points="702.0 774.0,700.0 776.0,699.0 778.0,697.0 786.0,698.0 789.0,700.0 791.0,703.0 791.0,706.0 790.0,707.0 788.0,708.0 783.0,707.0 779.0,706.0 776.0" style="fill:none;stroke:#ffffff;stroke-width:2"/>
<polyline points="712.0 771.0,713.0 773.0,714.0 776.0,715.0 778.0,716.0 781.0,717.0 786.0,718.0 789.0,721.0 788.0,722.0 786.0,724.0 781.0,725.0 778.0,726.0 775.0" style="fill:none;stroke:#ffffff;stroke-width:2"/>
<polyline points="732.0 771.0,733.0 774.0,733.0 779.0,734.0 791.0,736.0 790.0,740.0 789.0,744.0 787.0,745.0 786.0" style="fill:none;stroke:#ffffff;stroke-width:2"/>
<polyline points="731.0 770.0,735.0 767.0,738.0 766.0,740.0 765.0,743.0 764.0,745.0 763.0,749.0 764.0" style="fill:none;stroke:#ffffff;stroke-width:2"/>
<polyline points="734.0 776.0,738.0 774.0,741.0 774.0,743.0 773.0" style="fill:none;stroke:#ffffff;stroke-width:2"/>
<polyline points="770.0 755.0,768.0 756.0,763.0 760.0,760.0 762.0,759.0 764.0,757.0 766.0,759.0 769.0,761.0 770.0,764.0 771.0,768.0 774.0,768.0 778.0,766.0 780.0,763.0 782.0,761.0 783.0" style="fill:none;stroke:#ffffff;stroke-width:2"/>
<polyline points="809.0 716.0,809.0 720.0,808.0 722.0,808.0 725.0,806.0 730.0,803.0 740.0,802.0 745.0,800.0 750.0,798.0 759.0,797.0 763.0,797.0 766.0,796.0 771.0,796.0 773.0" style="fill:none;stroke:#ffffff;stroke-width:2"/>
<polyline points="790.0 791.0,788.0 793.0,787.0 795.0,788.0 798.0,791.0 797.0,793.0 796.0,793.0 792.0,791.0 791.0,789.0 793.0,788.0 796.0,789.0 798.0,791.0 796.0,793.0 795.0,794.0 792.0,792.0 792.0" style="fill:none;stroke:#ffffff;stroke-width:2"/>
<polyline points="620.0 829.0,619.0 833.0,618.0 840.0,615.0 849.0,614.0 854.0,612.0 859.0,610.0 866.0,609.0 868.0,607.0 874.0,605.0 876.0,602.0 875.0,600.0 873.0,597.0 868.0,598.0 866.0,602.0 865.0,606.0 865.0,619.0 864.0,621.0 866.0,624.0 865.0,626.0 868.0,625.0 871.0,625.0 874.0,624.0 877.0,622.0 881.0,622.0 884.0,621.0 886.0,620.0 892.0,619.0 894.0" style="fill:none;stroke:#ffffff;stroke-width:2"/>
<polyline points="660.0 860.0,658.0 859.0,655.0 861.0,653.0 863.0,652.0 865.0,652.0 869.0,656.0 869.0,661.0 866.0,663.0 863.0,666.0 859.0,667.0 857.0,670.0 850.0,671.0 846.0,675.0 833.0,676.0 829.0,677.0 826.0,678.0 824.0,681.0 819.0,680.0 823.0,675.0 836.0,670.0 850.0,668.0 855.0,667.0 858.0,667.0 861.0,666.0 864.0" style="fill:none;stroke:#ffffff;stroke-width:2"/>
<polyline points="677.0 858.0,675.0 861.0,675.0 865.0" style="fill:none;stroke:#ffffff;stroke-width:2"/>
<polyline points="685.0 856.0,683.0 858.0,683.0 861.0,685.0 862.0,687.0 864.0,686.0 866.0,684.0 869.0,682.0 870.0" style="fill:none;stroke:#ffffff;stroke-width:2"/>
<polyline points="694.0 861.0,694.0 865.0,693.0 868.0,690.0 876.0,687.0 883.0,686.0 886.0,685.0 888.0,684.0 892.0,683.0 894.0,682.0 895.0" style="fill:none;stroke:#ffffff;stroke-width:2"/>
<polyline points="693.0 852.0,696.0 850.0,700.0 851.0,701.0 853.0,700.0 857.0,700.0 860.0,699.0 862.0,697.0 864.0,695.0 867.0,694.0 868.0" style="fill:none;stroke:#ffffff;stroke-width:2"/>
<polyline points="721.0 807.0,721.0 810.0,719.0 817.0,717.0 822.0,714.0 834.0,712.0 839.0,711.0 844.0,709.0 849.0,706.0 858.0,706.0 861.0,705.0 864.0,705.0 867.0" style="fill:none;stroke:#ffffff;stroke-width:2"/>
<polyline points="717.0 857.0,715.0 858.0,714.0 860.0,713.0 864.0,712.0 866.0,716.0 865.0,718.0 863.0,719.0 861.0,719.0 865.0,720.0 867.0,721.0 868.0" style="fill:none;stroke:#ffffff;stroke-width:2"/>
<polyline points="726.0 859.0,725.0 861.0,725.0 865.0,726.0 867.0,729.0 866.0,731.0 864.0,735.0 862.0,737.0 860.0,738.0 857.0,737.0 855.0,735.0 857.0,734.0 860.0,733.0 865.0,736.0 866.0,738.0 864.0,744.0 861.0,744.0 865.0,746.0 863.0,747.0 861.0,749.0 858.0,750.0 861.0,753.0 861.0,754.0 859.0,757.0 856.0,760.0 856.0,761.0 858.0,764.0 859.0,765.0 856.0,763.0 855.0,762.0 857.0,761.0 860.0,763.0 863.0,766.0 861.0,770.0 859.0,772.0 861.0,775.0 859.0,776.0 857.0,778.0 856.0,779.0 859.0,780.0 861.0,784.0 861.0,786.0 859.0,787.0 857.0,789.0 856.0,791.0 853.0,793.0 851.0,801.0 841.0,804.0 836.0,807.0 830.0,810.0 825.0,815.0 817.0,816.0 814.0,818.0 811.0,817.0 813.0,816.0 816.0,814.0 821.0,811.0 826.0,807.0 837.0,804.0 842.0,799.0 852.0,797.0 857.0,796.0 862.0,794.0 866.0,794.0 869.0,795.0 880.0,796.0 884.0,797.0 888.0" style="fill:none;stroke:#ffffff;stroke-width:2"/>
<polyline points="759.0 840.0,762.0 839.0,765.0 839.0,772.0 838.0,776.0 837.0,788.0 835.0,791.0 835.0,794.0 834.0,799.0 834.0,808.0 834.0" style="fill:none;stroke:#ffffff;stroke-width:2"/>
<polyline points="829.0 864.0,831.0 862.0,835.0 857.0,837.0 854.0,839.0 852.0,843.0 847.0,844.0 845.0,845.0 842.0,847.0 838.0,848.0 834.0,848.0 831.0,849.0 829.0,848.0 833.0,848.0 836.0,849.0 841.0,849.0 845.0,850.0 851.0,851.0 855.0,852.0 858.0,851.0 861.0,849.0 862.0,844.0 863.0,841.0 863.0,834.0 862.0" style="fill:none;stroke:#ffffff;stroke-width:2"/>
<polyline points="859.0 847.0,861.0 846.0,864.0 847.0,864.0 851.0,861.0 854.0,860.0 856.0,859.0 857.0" style="fill:none;stroke:#ffffff;stroke-width:2"/>
<polyline points="871.0 844.0,869.0 846.0,868.0 850.0,866.0 854.0,867.0 858.0,869.0 860.0,871.0 860.0" style="fill:none;stroke:#ffffff;stroke-width:2"/>
<polyline points="833.0 826.0,837.0 825.0,840.0 825.0,846.0 824.0,854.0 823.0,858.0 822.0,862.0 822.0,868.0 821.0,872.0 821.0,875.0 820.0,878.0 817.0,876.0 816.0,874.0 814.0,874.0 812.0" style="fill:none;stroke:#ffffff;stroke-width:2"/>
<polyline points="893.0 846.0,897.0 846.0,903.0 845.0,907.0 845.0" style="fill:none;stroke:#ffffff;stroke-width:2"/>
<polyline points="896.0 850.0,899.0 849.0,903.0 850.0,908.0 850.0" style="fill:none;stroke:#ffffff;stroke-width:2"/>
<polyline points="923.0 840.0,926.0 841.0,927.0 845.0,929.0 848.0,930.0 850.0,932.0 853.0,933.0 855.0,936.0 854.0,937.0 850.0,938.0 848.0,940.0 843.0,941.0 840.0,942.0 839.0" style="fill:none;stroke:#ffffff;stroke-width:2"/>
<polyline points="921.0 828.0,925.0 828.0,938.0 827.0,941.0 827.0,948.0 825.0,947.0 822.0,948.0 819.0" style="fill:none;stroke:#ffffff;stroke-width:2"/>
<polyline points="954.0 855.0,955.0 853.0,957.0 851.0,959.0 848.0,960.0 846.0,963.0 841.0,964.0 838.0,967.0 830.0,970.0 823.0,971.0 819.0,972.0 817.0,971.0 821.0,971.0 824.0,972.0 827.0,972.0 830.0,973.0 834.0,973.0 838.0,974.0 843.0,975.0 847.0,976.0 853.0,974.0 855.0,970.0 856.0,967.0 856.0,964.0 857.0,961.0 857.0,959.0 858.0,957.0 858.0" style="fill:none;stroke:#ffffff;stroke-width:2"/>
<polyline points="993.0 819.0,993.0 822.0,992.0 827.0,991.0 830.0,988.0 836.0,985.0 844.0,983.0 847.0,982.0 852.0,981.0 855.0,982.0 859.0,985.0 865.0,988.0 865.0,992.0 864.0" style="fill:none;stroke:#ffffff;stroke-width:2"/>
<polyline points="974.0 840.0,976.0 839.0,981.0 839.0,991.0 838.0,993.0 838.0" style="fill:none;stroke:#ffffff;stroke-width:2"/>
<polyline points="536.0 526.0,538.0 525.0,543.0 524.0,547.0 523.0,553.0 521.0,556.0 521.0,560.0 520.0,562.0 519.0,566.0 518.0,572.0 517.0,574.0 516.0,577.0 516.0,582.0 514.0,584.0 513.0,588.0 512.0,593.0 511.0,595.0 510.0,599.0 509.0,602.0 508.0,606.0 507.0,609.0 506.0,612.0 506.0,614.0 505.0,617.0 505.0,619.0 504.0,622.0 503.0,627.0 502.0,634.0 500.0,638.0 499.0,641.0 498.0,646.0 497.0,649.0 496.0,654.0 495.0,656.0 494.0,660.0 493.0,665.0 492.0,669.0 491.0,674.0 490.0,677.0 489.0,681.0 488.0,687.0 487.0,689.0 486.0,694.0 485.0,701.0 484.0,703.0 483.0,707.0 483.0,710.0 482.0,714.0 481.0,719.0 480.0,722.0 480.0,725.0 479.0,733.0 477.0,736.0 476.0,739.0 476.0,741.0 475.0,745.0 474.0,750.0 473.0,754.0 473.0,756.0 472.0,760.0 471.0,766.0 470.0,769.0 469.0,774.0 468.0,777.0 467.0,781.0 466.0,787.0 465.0,788.0 464.0" style="fill:none;stroke:#ffffff;stroke-width:2"/>
<polyline points="651.0 486.0,654.0 487.0,656.0 488.0,658.0 490.0,661.0 491.0,660.0 494.0,658.0 496.0,655.0 500.0,653.0 503.0" style="fill:none;stroke:#ffffff;stroke-width:2"/>
<polyline points="650.0 531.0,651.0 528.0,652.0 526.0,654.0 524.0,655.0 521.0,657.0 519.0,658.0 516.0,660.0 513.0,661.0 510.0,660.0 512.0,661.0 515.0,661.0 519.0,662.0 522.0,664.0 524.0,665.0 526.0,666.0 529.0,665.0 531.0,661.0 531.0,655.0 532.0,651.0 532.0,649.0 532.0" style="fill:none;stroke:#ffffff;stroke-width:2"/>
<polyline points="669.0 518.0,671.0 516.0,675.0 516.0,675.0 520.0,674.0 523.0,672.0 525.0,671.0 528.0" style="fill:none;stroke:#ffffff;stroke-width:2"/>
<polyline points="681.0 514.0,678.0 517.0,676.0 520.0,676.0 523.0,677.0 525.0,679.0 527.0,681.0 527.0" style="fill:none;stroke:#ffffff;stroke-width:2"/>
<polyline points="656.0 508.0,660.0 507.0,666.0 506.0,671.0 505.0,676.0 505.0,678.0 504.0,681.0 503.0,686.0 504.0,684.0 502.0,680.0 498.0" style="fill:none;stroke:#ffffff;stroke-width:2"/>
<polyline points="511.0 413.0,509.0 411.0,507.0 412.0,505.0 414.0,504.0 417.0,503.0 419.0,503.0 423.0,505.0 426.0,508.0 427.0,513.0 428.0,516.0 427.0,518.0 426.0,518.0 422.0,517.0 418.0,514.0 416.0,511.0 415.0,509.0 414.0,505.0 415.0,503.0 418.0,502.0 420.0,502.0 424.0,503.0 429.0,504.0 431.0,508.0 431.0,511.0 429.0,513.0 428.0,515.0 426.0,515.0 422.0,514.0 417.0,511.0 415.0,509.0 414.0,505.0 415.0,503.0 418.0,501.0 420.0,501.0 424.0,502.0 427.0,504.0 430.0,507.0 431.0,512.0 432.0,515.0 431.0,517.0 430.0,520.0 428.0,521.0 426.0,520.0 423.0,520.0 420.0,517.0 415.0,516.0 413.0,514.0 411.0,512.0 410.0,509.0 410.0,506.0 411.0,504.0 413.0,500.0 419.0,499.0 421.0,500.0 425.0,501.0 427.0,503.0 429.0,505.0 430.0,508.0 430.0,516.0 429.0,518.0 427.0,519.0 424.0,519.0 421.0,517.0 417.0,515.0 415.0,511.0 412.0,508.0 411.0,504.0 412.0,502.0 414.0,501.0 416.0,500.0 419.0,500.0 422.0,501.0 428.0,504.0 430.0,507.0 430.0,511.0 429.0,515.0 427.0,517.0 425.0,521.0 420.0,520.0 417.0,518.0 414.0,514.0 412.0,511.0 413.0,509.0 415.0,506.0 419.0,505.0 423.0,504.0 426.0,505.0 429.0,508.0 430.0,513.0 429.0,515.0 428.0,516.0 425.0,515.0 422.0" style="fill:none;stroke:#ffffff;stroke-width:2"/>
<polyline points="778.0 354.0,775.0 353.0,770.0 353.0,768.0 354.0,763.0 357.0,762.0 359.0,761.0 363.0,761.0 367.0,762.0 369.0,764.0 372.0,767.0 373.0,772.0 371.0,775.0 370.0,777.0 368.0,778.0 366.0,777.0 362.0,776.0 360.0,774.0 355.0,772.0 352.0,770.0 351.0,766.0 352.0,764.0 354.0,763.0 356.0,762.0 359.0,762.0 366.0,763.0 368.0,765.0 369.0,770.0 371.0,773.0 370.0,778.0 368.0,779.0 366.0,780.0 363.0,779.0 359.0,777.0 354.0,775.0 352.0,771.0 349.0,768.0 349.0,765.0 350.0,763.0 352.0,761.0 353.0,759.0 357.0,758.0 360.0,757.0 362.0,757.0 365.0,759.0 369.0,761.0 371.0,765.0 372.0,767.0 371.0,772.0 370.0,775.0 369.0,779.0 367.0,781.0 363.0,782.0 359.0,780.0 355.0,778.0 352.0,775.0 351.0,769.0 350.0,767.0 352.0,764.0 354.0,762.0 356.0,761.0 360.0,760.0 363.0,761.0 367.0,762.0 369.0,764.0 370.0,767.0 371.0,771.0 371.0,773.0 370.0,776.0 369.0,778.0 368.0,779.0 366.0,779.0 361.0,778.0 357.0,776.0 355.0,773.0 354.0,768.0 357.0,766.0 358.0,764.0 361.0,763.0 364.0,763.0 368.0,764.0 370.0,767.0 370.0,771.0 367.0,773.0 364.0,772.0 362.0,769.0 360.0,767.0 361.0,766.0 362.0" style="fill:none;stroke:#ffffff;stroke-width:2"/>
<polyline points="441.0 488.0,437.0 489.0,435.0 492.0,434.0 495.0,433.0 500.0,433.0 504.0,435.0 514.0,437.0 516.0" style="fill:none;stroke:#ffffff;stroke-width:2"/>
<polyline points="445.0 499.0,447.0 497.0,448.0 500.0,448.0 504.0,447.0 508.0,448.0 511.0" style="fill:none;stroke:#ffffff;stroke-width:2"/>
<polyline points="455.0 481.0,458.0 483.0,460.0 485.0,465.0 492.0,465.0 499.0,464.0 504.0,463.0 506.0,461.0 511.0,459.0 514.0,458.0 516.0" style="fill:none;stroke:#ffffff;stroke-width:2"/>
<polyline points="697.0 407.0,694.0 406.0,690.0 408.0,686.0 411.0,685.0 413.0,683.0 414.0,682.0 416.0,679.0 426.0,680.0 431.0,683.0 434.0,688.0 439.0" style="fill:none;stroke:#ffffff;stroke-width:2"/>
<polyline points="697.0 419.0,699.0 417.0,702.0 416.0,704.0 418.0,703.0 421.0,702.0 423.0,699.0 426.0,698.0 428.0,696.0 430.0,697.0 433.0,701.0 433.0,704.0 432.0,706.0 432.0" style="fill:none;stroke:#ffffff;stroke-width:2"/>
<polyline points="708.0 404.0,713.0 405.0,715.0 407.0,718.0 412.0,719.0 414.0,719.0 417.0,718.0 428.0,717.0 430.0" style="fill:none;stroke:#ffffff;stroke-width:2"/>
<polyline points="554.0 367.0,557.0 366.0,558.0 369.0,558.0 373.0,558.0 379.0" style="fill:none;stroke:#ffffff;stroke-width:2"/>
<polyline points="836.0 317.0,839.0 316.0,840.0 319.0,840.0 323.0,838.0 326.0" style="fill:none;stroke:#ffffff;stroke-width:2"/>
<polyline points="834.0 330.0,837.0 329.0,842.0 328.0,844.0 328.0" style="fill:none;stroke:#ffffff;stroke-width:2"/>
<polyline points="941.0 854.0,944.0 853.0,945.0 856.0,944.0 860.0,944.0 864.0,944.0 870.0" style="fill:none;stroke:#ffffff;stroke-width:2"/>
</svg>